{
  "$schema": "./node_modules/nx/schemas/nx-schema.json",
  "npmScope": "myorg",
  "affected": {
    "defaultBase": "main"
  },
  "cli": {
    "defaultCollection": "@nrwl/react"
  },
  "implicitDependencies": {
    "package.json": {
      "dependencies": "*",
      "devDependencies": "*"
    },
    ".eslintrc.json": "*"
  },
  "tasksRunnerOptions": {
    "default": {
      "runner": "@nrwl/nx-cloud",
      "options": {
        "cacheableOperations": [
          "build",
          "lint",
          "test",
          "e2e"
        ],
        "accessToken": "YjcxOTc5OWMtNTc2My00ZjU3LTk0Y2ItOTQ5NTc2YThlZmNhfHJlYWQtd3JpdGU="
      }
    }
  },
  "targetDependencies": {
    "build": [
      {
        "target": "build",
        "projects": "dependencies"
      }
    ]
  },
  "generators": {
    "@nrwl/react": {
      "application": {
        "style": "css",
        "linter": "eslint",
        "babel": true
      },
      "component": {
        "style": "css"
      },
      "library": {
        "style": "css",
        "linter": "eslint"
      }
    }
  },
  "defaultProject": "todos"
}
